lo: [i4-g--] Unknown 35.158.244.151:30303 <-- 192.168.1.184:56615
lo: [i4-g--] Unknown 178.128.195.220:30303 <-- 192.168.1.184:56626
lo: [i4-g--] Unknown 89.38.99.34:30303 <-- 192.168.1.184:56624
lo: [i4-g--] Unknown 34.255.23.113:30303 <-- 192.168.1.184:56627
lo: [i4-g--] Unknown 51.38.60.79:30303 <-- 192.168.1.184:56629
lo: [i4-g--] Unknown 162.243.160.83:30303 <-- 192.168.1.184:56613
lo: [i4-g--] Unknown 3.209.45.79:30303 <-- 192.168.1.184:56628
lo: [i4-g--] Unknown 51.38.81.180:30303 <-- 192.168.1.184:56632
lo: [i4-g--] Unknown 82.145.220.249:30303 <-- 192.168.1.184:56633
lo: [i4-g--] Unknown 104.42.217.25:30303 <-- 192.168.1.184:56611
lo: [i4-g--] Unknown 40.67.144.128:30303 <-- 192.168.1.184:56630
lo: [i4-g--] Unknown 192.168.1.184:56638 --> 209.250.240.205:30303
lo: [i4-g--] Unknown 52.231.165.108:30303 <-- 192.168.1.184:56618
lo: [i4-g--] Unknown 191.234.162.198:30303 <-- 192.168.1.184:56620
lo: [i4-g--] Unknown 159.203.84.31:30303 <-- 192.168.1.184:56634
lo: [i4-g--] Unknown 144.91.120.135:30303 <-- 192.168.1.184:56641
lo: [i4-g--] Unknown 18.138.108.67:30303 <-- 192.168.1.184:56622
lo: [i4-g--] Unknown 18.138.81.28:30303 <-- 192.168.1.184:56623
lo: [i4-g--] Unknown 178.62.10.218:30303 <-- 192.168.1.184:56642
lo: [i4-g--] Unknown 34.97.172.22:30303 <-- 192.168.1.184:56617
lo: [i4-g--] Unknown 178.62.29.183:30303 <-- 192.168.1.184:56643
lo: [i4-g--] Unknown 185.219.133.62:30303 <-- 192.168.1.184:56645
lo: [i4-g--] Unknown 162.228.29.160:30303 <-- 192.168.1.184:56635
lo: [i4-g--] Unknown 165.22.107.33:30303 <-- 192.168.1.184:56610
lo: [i4-g--] Unknown 18.219.167.159:30303 <-- 192.168.1.184:56639
lo: [i4-g--] Unknown 52.187.207.27:30303 <-- 192.168.1.184:56621
lo: [i4-g--] Unknown 172.105.94.62:30303 <-- 192.168.1.184:56646
lo: [i4-g--] Unknown 138.201.12.87:30303 <-- 192.168.1.184:56651
lo: [i4-g--] Unknown 176.9.136.209:30303 <-- 192.168.1.184:56652
lo: [i4-g--] Unknown 85.214.108.52:30303 <-- 192.168.1.184:56654
lo: [i4-g--] Unknown 35.228.250.140:30303 <-- 192.168.1.184:56650
lo: [i4-g--] Unknown 51.161.23.12:30303 <-- 192.168.1.184:56660
lo: [i4-g--] Unknown 157.230.152.87:30303 <-- 192.168.1.184:56658
lo: [i4-g--] Unknown 52.9.128.68:30303 <-- 192.168.1.184:56661
lo: [i4-g--] Unknown 86.107.243.62:30303 <-- 192.168.1.184:56671
lo: [i4-g--] Unknown 167.86.122.50:30303 <-- 192.168.1.184:56670
lo: [i4-g--] Unknown 138.75.171.190:30303 <-- 192.168.1.184:56657
lo: [i4-g--] Unknown 139.162.255.210:30303 <-- 192.168.1.184:56672
lo: [i4-g--] Unknown 35.235.37.216:30303 <-- 192.168.1.184:56675
lo: [i4-g--] Unknown 182.162.161.61:30303 <-- 192.168.1.184:56647
lo: [i4-g--] Unknown 35.229.232.19:30303 <-- 192.168.1.184:56662
lo: [i4-g--] Unknown 94.68.55.162:30303 <-- 192.168.1.184:56674
lo: [i4-g--] Unknown 35.228.158.52:30303 <-- 192.168.1.184:56679
lo: [i4-g--] Unknown 192.168.1.184:56681 --> 207.180.206.216:30303
lo: [i4-g--] Unknown 192.168.1.184:56655 --> 202.112.28.106:30303
lo: [i4-g--] Unknown 124.217.235.180:30303 <-- 192.168.1.184:56663
lo: [i4-g--] Unknown 78.47.147.155:30303 <-- 192.168.1.184:56673
lo: [i4-g--] Unknown 51.83.237.44:30303 <-- 192.168.1.184:56684
lo: [i4-g--] Unknown 88.99.93.219:30303 <-- 192.168.1.184:56685
